Business Forecasting FINAL
…
Cynthia Ulokameje

2025-12-07

QUESTION 1

a)

# Filter tourism for Sydney, Business & Holiday
sydney_tourism <- tourism %>% 
  filter(Region == "Sydney", Purpose %in% c("Business", "Holiday"))

sydney_tourism

## # A tsibble: 160 x 5 [1Q]
## # Key:       Region, State, Purpose [2]
##    Quarter Region State           Purpose  Trips
##      <qtr> <chr>  <chr>           <chr>    <dbl>
##  1 1998 Q1 Sydney New South Wales Business  525.
##  2 1998 Q2 Sydney New South Wales Business  545.
##  3 1998 Q3 Sydney New South Wales Business  691.
##  4 1998 Q4 Sydney New South Wales Business  599.
##  5 1999 Q1 Sydney New South Wales Business  444.
##  6 1999 Q2 Sydney New South Wales Business  794.
##  7 1999 Q3 Sydney New South Wales Business  664.
##  8 1999 Q4 Sydney New South Wales Business  685.
##  9 2000 Q1 Sydney New South Wales Business  504.
## 10 2000 Q2 Sydney New South Wales Business  700.
## #  150 more rows
…
QUESTION 2

a)

wheat_1890 <- prices |>
  filter(year >= 1890) |>
  select(wheat) |>
  drop_na()
wheat_1890

## # A tsibble: 107 x 2 [1Y]
##    wheat  year
##    <dbl> <dbl>
##  1  485.  1890
##  2  566.  1891
##  3  458.  1892
##  4  403.  1893
##  5  365   1894
##  6  379.  1895
##  7  426.  1896
##  8  479.  1897
##  9  523.  1898
## 10  406.  1899
## #  97 more rows
…
